﻿{
	"FaturaNum" : 10,
	"CodigoDoClienteNum" : 12,
	"Item" : 16,
	"DataInício" : <19,0>,
	"DataFim" : <19,2>,
	"DescontoBonus" : 21,
	"ValorTotal" : 23,
	"Vencimento" : 27,
	"ValorItem" : 37,
	"Periodo" : 38
}